<svg width="25" height="26" viewBox="0 0 25 26" xmlns="http://www.w3.org/2000/svg">
<path fill-rule="evenodd" clip-rule="evenodd" d="M0 13.3452C0 6.56893 5.72375 0.845184 12.5 0.845184C19.2763 0.845184 25 6.56893 25 13.3452C25 17.3327 23.01 20.9427 20 23.2502V23.3452H19.8725C17.7875 24.9014 15.2338 25.8452 12.5 25.8452C9.76625 25.8452 7.2125 24.9014 5.1275 23.3452H5V23.2502C1.99 20.9427 0 17.3314 0 13.3452ZM8.90433 19.8902C8.23942 20.4251 7.77671 21.1707 7.5925 22.0039C9.0525 22.8502 10.73 23.3452 12.5 23.3452C14.27 23.3452 15.9475 22.8502 17.4075 22.0039C17.2231 21.1708 16.7603 20.4253 16.0954 19.8904C15.4306 19.3555 14.6033 19.0631 13.75 19.0614H11.25C10.3966 19.0629 9.56924 19.3552 8.90433 19.8902ZM17.2097 17.6098C18.2347 18.292 19.0357 19.2613 19.5125 20.3964C21.3463 18.5727 22.5 16.0652 22.5 13.3452C22.5 7.92393 17.9212 3.34518 12.5 3.34518C7.07875 3.34518 2.5 7.92393 2.5 13.3452C2.5 16.0652 3.65375 18.5727 5.4875 20.3964C5.96431 19.2613 6.76534 18.292 7.79034 17.6098C8.81533 16.9277 10.0188 16.563 11.25 16.5614H13.75C14.9812 16.563 16.1847 16.9277 17.2097 17.6098ZM7.5 10.8452C7.5 7.99518 9.65 5.84518 12.5 5.84518C15.35 5.84518 17.5 7.99518 17.5 10.8452C17.5 13.6952 15.35 15.8452 12.5 15.8452C9.65 15.8452 7.5 13.6952 7.5 10.8452ZM10 10.8452C10 12.3177 11.0275 13.3452 12.5 13.3452C13.9725 13.3452 15 12.3177 15 10.8452C15 9.37268 13.9725 8.34518 12.5 8.34518C11.0275 8.34518 10 9.37268 10 10.8452Z"/>
</svg>
