<svg width="32" height="32" viewBox="0 0 32 32" fill="none" xmlns="http://www.w3.org/2000/svg">
<path d="M0 16C0 7.16344 7.16344 0 16 0C24.8366 0 32 7.16344 32 16C32 24.8366 24.8366 32 16 32C7.16344 32 0 24.8366 0 16Z" fill="#FEF0F0"/>
<path d="M22.5849 12.2231C22.3615 11.7098 22.0393 11.2446 21.6365 10.8536C21.2333 10.4615 20.758 10.1499 20.2363 9.93573C19.6954 9.71277 19.1152 9.59865 18.5295 9.59999C17.7077 9.59999 16.906 9.82326 16.2092 10.245C16.0425 10.3459 15.8842 10.4567 15.7341 10.5774C15.5841 10.4567 15.4258 10.3459 15.2591 10.245C14.5623 9.82326 13.7606 9.59999 12.9388 9.59999C12.3471 9.59999 11.7737 9.71245 11.232 9.93573C10.7086 10.1507 10.2369 10.46 9.83181 10.8536C9.42842 11.2442 9.10619 11.7094 8.88337 12.2231C8.65167 12.7573 8.53333 13.3246 8.53333 13.9084C8.53333 14.4592 8.64667 15.0331 8.8717 15.6169C9.06005 16.1048 9.33008 16.6109 9.67512 17.1219C10.2219 17.9307 10.9736 18.7742 11.907 19.6293C13.4539 21.0467 14.9857 22.0258 15.0507 22.0655L15.4458 22.3169C15.6208 22.4277 15.8458 22.4277 16.0208 22.3169L16.4159 22.0655C16.4809 22.0241 18.0111 21.0467 19.5596 19.6293C20.493 18.7742 21.2448 17.9307 21.7915 17.1219C22.1365 16.6109 22.4082 16.1048 22.5949 15.6169C22.82 15.0331 22.9333 14.4592 22.9333 13.9084C22.935 13.3246 22.8166 12.7573 22.5849 12.2231Z" fill="#FF8585"/>
<path fill-rule="evenodd" clip-rule="evenodd" d="M20.6615 11.8583L20.6604 11.8572C20.3857 11.5901 20.0614 11.3773 19.7046 11.2308L19.7028 11.2301C19.3323 11.0774 18.9345 10.9991 18.5327 11L18.5295 11C17.9616 11 17.4108 11.1542 16.9342 11.4427L16.9341 11.4427C16.8201 11.5117 16.7129 11.5869 16.6119 11.6681L15.7341 12.3745L14.8564 11.6681C14.7554 11.5869 14.6482 11.5117 14.5342 11.4427L14.5341 11.4427C14.0575 11.1542 13.5067 11 12.9388 11C12.5275 11 12.1355 11.0776 11.7655 11.2301L11.7639 11.2307C11.4054 11.378 11.0844 11.5886 10.8075 11.8576L10.8056 11.8595L10.8056 11.8595C10.5338 12.1226 10.3173 12.4355 10.1678 12.7801M15.7341 10.5774C15.5841 10.4567 15.4258 10.3459 15.2591 10.245C14.5623 9.82326 13.7606 9.59999 12.9388 9.59999C12.3471 9.59999 11.7737 9.71245 11.232 9.93573C10.7086 10.1507 10.2369 10.46 9.83181 10.8536C9.42842 11.2442 9.10619 11.7094 8.88337 12.2231C8.65167 12.7573 8.53333 13.3246 8.53333 13.9084C8.53333 14.4592 8.64667 15.0331 8.8717 15.6169C9.06005 16.1048 9.33008 16.6109 9.67512 17.1219C10.2219 17.9307 10.9736 18.7742 11.907 19.6293C13.4539 21.0467 14.9857 22.0258 15.0507 22.0655L15.4458 22.3169C15.6208 22.4277 15.8458 22.4277 16.0208 22.3169L16.4159 22.0655C16.4809 22.0241 18.0111 21.0467 19.5596 19.6293C20.493 18.7742 21.2448 17.9307 21.7915 17.1219C22.1365 16.6109 22.4082 16.1048 22.5949 15.6169C22.82 15.0331 22.9333 14.4592 22.9333 13.9084C22.935 13.3246 22.8166 12.7573 22.5849 12.2231C22.3615 11.7098 22.0393 11.2446 21.6365 10.8536C21.2333 10.4615 20.758 10.1499 20.2363 9.93573C19.6954 9.71277 19.1152 9.59865 18.5295 9.59999C17.7077 9.59999 16.906 9.82326 16.2092 10.245C16.0425 10.3459 15.8842 10.4567 15.7341 10.5774ZM20.6312 16.3386C20.929 15.8975 21.146 15.486 21.2874 15.1166L21.2886 15.1134C21.4598 14.6693 21.5333 14.2659 21.5333 13.9084V13.9044C21.5344 13.5161 21.4565 13.1401 21.301 12.7813C21.1507 12.436 20.9336 12.1224 20.6615 11.8583M20.6312 16.3386C20.1614 17.0334 19.4896 17.7947 18.6143 18.5966L20.6312 16.3386ZM10.8351 16.3381C11.305 17.0331 11.977 17.7948 12.8527 18.5969L12.8529 18.5971C13.5777 19.2612 14.3044 19.8274 14.8604 20.2335C15.2978 20.553 15.6171 20.7645 15.7329 20.8399C16.0401 20.639 17.3235 19.7781 18.6139 18.5969M10.835 16.3379C10.5393 15.8998 10.3224 15.4873 10.178 15.1134L10.835 16.3379ZM10.1677 12.7802C10.012 13.1393 9.93333 13.517 9.93333 13.9084C9.93333 14.2657 10.0068 14.6689 10.1778 15.1127" fill="#FF8585"/>
</svg>
