<svg width="35" height="35" viewBox="0 0 35 35" fill="none" xmlns="http://www.w3.org/2000/svg">
<path d="M0 7C0 3.13401 3.13401 0 7 0H28C31.866 0 35 3.13401 35 7V28C35 31.866 31.866 35 28 35H7C3.13401 35 0 31.866 0 28V7Z" fill="#FFC7C7"/>
<path d="M24.7022 13.369C24.4578 12.8076 24.1055 12.2988 23.6648 11.8712C23.2239 11.4423 22.704 11.1015 22.1334 10.8672C21.5418 10.6234 20.9072 10.4985 20.2665 10.5C19.3677 10.5 18.4908 10.7442 17.7287 11.2055C17.5464 11.3158 17.3732 11.437 17.2092 11.5691C17.0451 11.437 16.8719 11.3158 16.6896 11.2055C15.9275 10.7442 15.0506 10.5 14.1518 10.5C13.5046 10.5 12.8774 10.623 12.2849 10.8672C11.7124 11.1024 11.1965 11.4407 10.7535 11.8712C10.3123 12.2983 9.95982 12.8072 9.71611 13.369C9.46269 13.9533 9.33325 14.5738 9.33325 15.2123C9.33325 15.8147 9.45722 16.4424 9.70335 17.081C9.90936 17.6146 10.2047 18.1682 10.5821 18.7271C11.1801 19.6117 12.0023 20.5343 13.0233 21.4695C14.7151 23.0198 16.3906 24.0907 16.4617 24.1341L16.8938 24.4091C17.0852 24.5303 17.3313 24.5303 17.5227 24.4091L17.9548 24.1341C18.0259 24.0889 19.6995 23.0198 21.3932 21.4695C22.4142 20.5343 23.2364 19.6117 23.8344 18.7271C24.2118 18.1682 24.5089 17.6146 24.7131 17.081C24.9593 16.4424 25.0832 15.8147 25.0832 15.2123C25.0851 14.5738 24.9556 13.9533 24.7022 13.369Z" fill="#FF6F6F"/>
</svg>
